v      0.0093892     -0.0061508      0.7805454
v      0.0824253     -0.0824457      0.8825027
v      0.0091244     -0.0073321      0.9878816
v      0.0576794      0.0865394      0.8830322
v      0.0092263     -0.0056417      0.7634982
v     -0.0900426     -0.0061916      0.8613210
v      0.0106112     -0.0093281      0.9603251
v      0.0360496     -0.1037496      0.8582049
v      0.0095318     -0.0059879      0.7865130
v      0.0645431      0.0851137      0.8938879
v      0.0079228     -0.0096947      1.0000000
v     -0.0974562      0.0129331      0.8909957
v      0.0087374     -0.0054584      0.7114198
v      0.0705310     -0.1049512      0.8063708
v      0.0436058     -0.0082690      0.9214852
v      0.1054604      0.0650522      0.8023992
v      0.0090226     -0.0051936      0.7338439
v     -0.0642987     -0.1010408      0.8347013
v      0.0203874     -0.0369458      0.9533799
v      0.1151958     -0.0697774      0.8294670
v      0.0087782     -0.0048677      0.6846372
v     -0.1112446     -0.0064971      0.7858001
v     -0.0083708     -0.0353368      0.9035826
v      0.0125257     -0.1306544      0.7776940
v      0.0092466     -0.0052547      0.7064299
v     -0.0417931      0.1044828      0.8015642
v     -0.0176989      0.0081875      0.9217499
v     -0.0971507     -0.0569665      0.8041915
v      0.0092059     -0.0055195      0.7053708
v      0.0883521      0.0927717      0.8069003
v      0.0028717      0.0286768      0.9314854
v     -0.0992077      0.0587996      0.8063301
v      0.0087782     -0.0055398      0.6951873
v      0.1314080     -0.0255199      0.7957189
v      0.0342166      0.0156215      0.9184708
v      0.0239923      0.1187193      0.7937636
v      0.0073525     -0.0046233      0.6181389
v     -0.0343592     -0.1432616      0.7165726
v      0.0450926     -0.0655614      0.8547832
v      0.1452168     -0.0626489      0.7081203
v      0.0081875     -0.0045011      0.6457565
v     -0.1182712     -0.0814477      0.7441496
v     -0.0071692     -0.0763152      0.8858225
v      0.0903481     -0.1276401      0.7431923
v      0.0083505     -0.0045418      0.6384448
v     -0.1297786     -0.0112833      0.7309110
v     -0.0357645     -0.0552353      0.8635817
v     -0.0022607     -0.1455630      0.7251064
v      0.0087171     -0.0048881      0.6469175
v     -0.1035663      0.0741970      0.7351881
v     -0.0535856     -0.0093077      0.8688568
v     -0.0698792     -0.1124666      0.7404224
v      0.0083097     -0.0051936      0.6109697
v     -0.0008961      0.1409194      0.7136805
v     -0.0526895      0.0367014      0.8524817
v     -0.1459093      0.0077598      0.6995254
v      0.0077191     -0.0055602      0.6012139
v      0.1108577      0.1097782      0.6978961
v      0.0090226      0.0712438      0.8471659
v     -0.0839528      0.1205727      0.6948614
v      0.0080246     -0.0056417      0.6502984
v      0.1438522     -0.0240534      0.7455549
v      0.0602660      0.0475366      0.8739689
v      0.0276380      0.1369071      0.7339661
v      0.0081264     -0.0054991      0.6615410
v      0.1523045     -0.0298784      0.7497709
v      0.0714679      0.0260698      0.8921363
v      0.0266197      0.1308784      0.7618078
v      0.0071692     -0.0051121      0.6129045
v      0.0905925     -0.1186990      0.7068168
v      0.0763152     -0.0136255      0.8417279
v      0.1301045      0.0695534      0.7013381
v      0.0069044     -0.0027292      0.5158150
v     -0.1575592     -0.0760912      0.6030265
v     -0.0474959     -0.1186990      0.7677142
v      0.0252347     -0.1867044      0.5907452
v      0.0078006     -0.0039716      0.5657753
v     -0.1390252      0.0513045      0.6601560
v     -0.0918349     -0.0654392      0.7963502
v     -0.0700625     -0.1540357      0.6346769
v      0.0079024     -0.0043789      0.5772012
v     -0.1533432      0.0436872      0.6595450
v     -0.0945640     -0.0423023      0.8181633
v     -0.0497159     -0.1547486      0.6718263
v      0.0075969     -0.0038290      0.5276686
v     -0.0938512      0.1216929      0.6196053
v     -0.0960712      0.0065378      0.7684067
v     -0.1380680     -0.0843805      0.6087904
v      0.0075154     -0.0047455      0.5401128
v      0.0158659      0.1567853      0.6161836
v     -0.0540337      0.0861321      0.7674494
v     -0.1455834      0.0452962      0.6163873
v      0.0071488     -0.0049085      0.5354488
v      0.0746247      0.1484144      0.6057965
v     -0.0079431      0.1083729      0.7651887
v     -0.1147681      0.1027923      0.6151245
v      0.0064767     -0.0046029      0.5148985
v      0.1694332      0.0467219      0.6138211
v      0.0549095      0.0979653      0.7696083
v     -0.0111611      0.1737306      0.5963258
v      0.0060694     -0.0043993      0.5236359
v      0.1551355     -0.0556223      0.6099513
v      0.1032811      0.0445223      0.7529074
v      0.0841972      0.1386790      0.5979552
v      0.0062730     -0.0048881      0.5695228
v      0.1293102     -0.1111835      0.6512149
v      0.1175991     -0.0047455      0.8011568
v      0.1335465      0.0975173      0.6484246
v      0.0058250     -0.0037679      0.5176888
v      0.1306340     -0.1288010      0.5980977
v      0.1170289     -0.0291045      0.7669606
v      0.1553392      0.0800220      0.6075480
v      0.0061305     -0.0032180      0.5242673
v      0.0067822     -0.1852380      0.6016416
v      0.0662335     -0.1074360      0.7763906
v      0.1737306     -0.0503880      0.6168354
v      0.0068026     -0.0035642      0.5598485
v     -0.0967840     -0.1348907      0.6391576
v      0.0140125     -0.1271716      0.7900772
v      0.1087395     -0.1411638      0.6286482
v      0.0072303     -0.0024440      0.4461598
v     -0.1420396      0.1100837      0.5059981
v     -0.1526915      0.0021996      0.6725392
v     -0.1485366     -0.1052567      0.5050001
v      0.0071896     -0.0027903      0.4414754
v     -0.1135665      0.1473146      0.4933094
v     -0.1474775      0.0550724      0.6697489
v     -0.1733640     -0.0580460      0.5039614
v      0.0067822     -0.0029736      0.4206603
v      0.0091041      0.1929775      0.5133098
v     -0.1079452      0.1115705      0.6804008
v     -0.1907982      0.0576794      0.4838591
v      0.0063341     -0.0034420      0.4294996
v      0.0942585      0.1539746      0.5095827
v     -0.0330964      0.1429561      0.6633129
v     -0.1304304      0.1246869      0.4893379
v      0.0064156     -0.0042363      0.4758345
v      0.1369478      0.1280881      0.5491354
v      0.0200004      0.1480478      0.7130288
v     -0.0905110      0.1561539      0.5434327
v      0.0057231     -0.0034624      0.4234506
v      0.1456852      0.1415711      0.4927188
v      0.0402452      0.1485570      0.6809304
v     -0.0831789      0.1715310      0.5048372
v      0.0050103     -0.0032995      0.4301106
v      0.2099432      0.0338907      0.4916190
v      0.1357665      0.0967840      0.6888939
v      0.0367421      0.1925294      0.5168944
v      0.0050103     -0.0035031      0.4660991
v      0.1863582     -0.0704088      0.5289110
v      0.1682519      0.0473737      0.6966537
v      0.1279456      0.1478442      0.5212937
v      0.0050918     -0.0034013      0.4768325
v      0.1593515     -0.1172936      0.5593597
v      0.1636490      0.0142162      0.7247602
v      0.1590867      0.1205931      0.5418644
v      0.0047455     -0.0024644      0.4395405
v      0.1315505     -0.1425895      0.5051834
v      0.1566020     -0.0355608      0.6755127
v      0.1677835      0.0857451      0.5131876
v      0.0050103     -0.0019349      0.4542862
v      0.0463350     -0.1971120      0.5086254
v      0.1253182     -0.1267643      0.6892605
v      0.1988839     -0.0293285      0.5187886
v      0.0050307     -0.0012831      0.4310271
v     -0.0133608     -0.2019593      0.4832278
v      0.0847064     -0.1603495      0.6650848
v      0.1813683     -0.0938105      0.4894804
v      0.0058657     -0.0013850      0.4488482
v     -0.1112854     -0.1697387      0.5119860
v     -0.0019349     -0.1710422      0.6998921
v      0.1351555     -0.1501660      0.5321086
v      0.0062934     -0.0013646      0.4525550
v     -0.1658486     -0.1212245      0.5216196
v     -0.0522414     -0.1705330      0.7079981
v      0.0842380     -0.1915110      0.5316198
v      0.0068841     -0.0018534      0.4699281
v     -0.1834050     -0.0208966      0.5548993
v     -0.0967433     -0.1252775      0.7176928
v     -0.0234017     -0.1985580      0.5325567
v      0.0073525     -0.0023218      0.4866087
v     -0.1981099     -0.0065989      0.5496446
v     -0.1348296     -0.0947066      0.7384468
v     -0.0246034     -0.1933441      0.5784232
v      0.0050103     -0.0017719      0.3195381
v     -0.0504695      0.2196379      0.3722275
v     -0.1389641      0.1444021      0.5790953
v     -0.2166236      0.0280250      0.3869122
v      0.0044400     -0.0024644      0.3261777
v      0.0705310      0.2231614      0.3675839
v     -0.0326076      0.2094340      0.5857960
v     -0.1724068      0.1379458      0.4013727
v      0.0048066     -0.0031365      0.3622273
v      0.1545449      0.1568667      0.4057924
v      0.0326687      0.2169902      0.5865700
v     -0.0909183      0.1947901      0.3979918
v      0.0048270     -0.0031976      0.3729200
v      0.1878246      0.1167437      0.4420864
v      0.0634432      0.1964398      0.6213772
v     -0.0557038      0.2118577      0.4221675
v      0.0035235     -0.0024644      0.3356280
v      0.1991487      0.0859284      0.3832868
v      0.1118760      0.1693925      0.5705412
v     -0.0245830      0.2058698      0.3978696
v      0.0031162     -0.0023015      0.3504348
v      0.2285790     -0.0069859      0.3787246
v      0.2025907      0.1069065      0.5769568
v      0.0917330      0.2007577      0.3979918
v      0.0022811     -0.0016294      0.3271961
v      0.2215931     -0.0624453      0.3508014
v      0.2293529      0.0558667      0.5498075
v      0.1471313      0.1704312      0.3654046
v      0.0026681     -0.0011202      0.3449765
v      0.1799426     -0.1526304      0.3804965
v      0.2265219     -0.0436872      0.5880364
v      0.1935070      0.1175584      0.4143669
v      0.0027088     -0.0007332      0.3487240
v      0.1304507     -0.2031202      0.3892951
v      0.2225300     -0.0996354      0.5925579
v      0.2276625      0.0648282      0.4093973
v      0.0034624     -0.0005092      0.3660971
v      0.0321595     -0.2193935      0.4308031
v      0.1678853     -0.1462352      0.6054298
v      0.2256869     -0.0417320      0.4050795
v      0.0041141     -0.0004073      0.3827573
v      0.0232388     -0.2335282      0.4162610
v      0.1361331     -0.1908389      0.6229455
v      0.2235687     -0.0397360      0.4589299
v      0.0037475      0.0001629      0.3518605
v     -0.0273733     -0.2157681      0.3806187
v      0.0807959     -0.2020611      0.5748997
v      0.1889448     -0.1042587      0.4059757
v      0.0048881      0.0002444      0.3672173
v     -0.1512454     -0.1469684      0.4207010
v     -0.0202652     -0.2203100      0.5869570
v      0.1004094     -0.1958696      0.3995397
v      0.0043789      0.0008350      0.3275423
v     -0.1947494     -0.0963767      0.3891322
v     -0.0806330     -0.2190880      0.5509685
v      0.0178619     -0.2277439      0.3395996
v      0.0051121      0.0001833      0.3302308
v     -0.2083545     -0.0071896      0.3807613
v     -0.1584350     -0.1313265      0.5584024
v     -0.0557241     -0.2051773      0.3751197
v      0.0060083     -0.0004888      0.3517791
v     -0.1911852      0.0775983      0.4137966
v     -0.1962362     -0.0751950      0.5774456
v     -0.1208579     -0.1760728      0.3920650
v      0.0054380     -0.0004888      0.3259944
v     -0.1971934      0.0961527      0.3786024
v     -0.2002688     -0.0269456      0.5770586
v     -0.1524267     -0.1557873      0.3877268
v      0.0056009     -0.0013035      0.3295790
v     -0.1126907      0.1907778      0.3967902
v     -0.1939754      0.0700218      0.5857146
v     -0.2157478     -0.0566814      0.3844477
v      0.0059472     -0.0020774      0.3531436
v     -0.0598179      0.2006151      0.3989898
v     -0.1549930      0.1245239      0.5830058
v     -0.2053606      0.0061305      0.4032669
v      0.0009980     -0.0021182      0.2355445
v      0.2177030      0.1226705      0.2355038
v      0.1435874      0.2437932      0.4451007
v     -0.0272714      0.2445875      0.2576835
v      0.0001018     -0.0018941      0.2125909
v      0.2401475      0.0736879      0.2063382
v      0.1980488      0.2120206      0.4162610
v      0.0341147      0.2465427      0.2234465
v     -0.0000611     -0.0012831      0.2301065
v      0.2587222     -0.0190432      0.2384163
v      0.2570928      0.1208375      0.4610481
v      0.0999613      0.2318173      0.2813296
v     -0.0003259     -0.0009369      0.2338337
v      0.2515937     -0.0888002      0.2463390
v      0.2916556      0.0696145      0.4620664
v      0.1574370      0.2099839      0.2732031
v      0.0000204     -0.0003462      0.2509623
v      0.1880486     -0.1638934      0.2952402
v      0.2749139     -0.0081672      0.4793377
v      0.2194546      0.1233630      0.2660747
v      0.0002851      0.0000815      0.2674596
v      0.1911241     -0.1764598      0.2704536
v      0.2821646     -0.0682702      0.4926170
v      0.2179474      0.1272327      0.3279700
v     -0.0000815      0.0005295      0.2369295
v      0.1427117     -0.1949734      0.2356463
v      0.2444449     -0.1174566      0.4447748
v      0.2321432      0.0563759      0.2718182
v      0.0005703      0.0013239      0.2521436
v      0.0095725     -0.2403715      0.2789263
v      0.1824681     -0.2109412      0.4520866
v      0.2330190     -0.0680258      0.2574391
v      0.0001018      0.0018127      0.2129982
v     -0.0560500     -0.2425711      0.2470111
v      0.1394326     -0.2604737      0.4118210
v      0.2015520     -0.1482311      0.1894336
v      0.0011202      0.0019349      0.2155848
v     -0.1303489     -0.1993931      0.2380089
v      0.0117110     -0.2667060      0.4255280
v      0.1446058     -0.1905334      0.2342818
v      0.0021182      0.0019960      0.2369091
v     -0.1915925     -0.1403287      0.2734679
v     -0.0623842     -0.2664820      0.4410884
v      0.0850323     -0.2255647      0.2477036
v      0.0019756      0.0018738      0.2113689
v     -0.2084360     -0.1377828      0.2354019
v     -0.1096356     -0.2428563      0.4480743
v      0.0524654     -0.2432229      0.2481313
v      0.0028106      0.0015275      0.2149331
v     -0.2514919     -0.0206522      0.2586407
v     -0.1989857     -0.1847492      0.4565470
v     -0.0626897     -0.2469093      0.2406770
v      0.0035846      0.0009980      0.2382330
v     -0.2337726      0.0289212      0.2583963
v     -0.2309619     -0.1182509      0.4515367
v     -0.1102263     -0.2081101      0.2604737
v      0.0040327      0.0006925      0.2496385
v     -0.2282328      0.0940956      0.2961160
v     -0.2525713     -0.0736675      0.4903766
v     -0.1641785     -0.1876006      0.2762174
v      0.0033402      0.0002444      0.2077639
v     -0.1769282      0.1591682      0.2740993
v     -0.2596998     -0.0107538      0.4415772
v     -0.2219597     -0.1047068      0.2097395
v      0.0039512     -0.0007739      0.2402289
v     -0.1263977      0.2092914      0.2602293
v     -0.2435487      0.1130573      0.4604167
v     -0.2384163     -0.0437483      0.2638139
v      0.0037475     -0.0011202      0.2285790
v     -0.0836066      0.2435284      0.2580093
v     -0.2414306      0.1594126      0.4532068
v     -0.2564411      0.0142569      0.2317766
v      0.0031569     -0.0016090      0.2254425
v     -0.0273529      0.2624493      0.2505754
v     -0.1657875      0.2204729      0.4790933
v     -0.2504939      0.0592680      0.2786207
v      0.0032384     -0.0020978      0.2550561
v      0.0587181      0.2514308      0.2696593
v     -0.0960305      0.2688242      0.4820668
v     -0.2204729      0.1190859      0.3044258
v      0.0031569     -0.0022607      0.2672152
v      0.0994929      0.2408196      0.2865639
v     -0.0510601      0.2790485      0.5018228
v     -0.1926108      0.1663170      0.3071346
v      0.0023422     -0.0022811      0.2517567
v      0.1419581      0.2143628      0.2644046
v      0.0146439      0.2787837      0.4834518
v     -0.1579666      0.1911037      0.3074604
v     -0.0024033     -0.0006314      0.1096967
v      0.2467667     -0.0893705      0.0761523
v      0.3206379      0.0467423      0.2972566
v      0.1770708      0.1950345      0.1225891
v     -0.0025662      0.0002851      0.1245239
v      0.1696165     -0.2050347      0.1213670
v      0.3255871     -0.0715086      0.2988859
v      0.2455447      0.0965600      0.1009593
v     -0.0026273      0.0008350      0.0864987
v      0.1211837     -0.2488238      0.0885354
v      0.3237133     -0.1421821      0.2537119
v      0.2680706      0.0152956      0.0255606
v     -0.0019349      0.0015886      0.0889631
v      0.0418746     -0.2604941      0.0778020
v      0.2250759     -0.2339355      0.2736105
v      0.2583352     -0.0485142      0.0804293
v     -0.0015275      0.0020774      0.1097578
v     -0.0429948     -0.2624086      0.1134646
v      0.1669077     -0.2885802      0.2834274
v      0.2387625     -0.1125074      0.0895538
v     -0.0011406      0.0022607      0.0848286
v     -0.0536874     -0.2718589      0.0725677
v      0.1127314     -0.3094157      0.2983564
v      0.2311656     -0.1510621      0.0952565
v     -0.0003259      0.0025866      0.0883317
v     -0.1680075     -0.2279069      0.0980468
v      0.0026681     -0.3377869      0.3037333
v      0.1566631     -0.2344040      0.0816310
v      0.0002851      0.0024848      0.1110206
v     -0.1903297     -0.1795760      0.0944622
v     -0.0738101     -0.3138964      0.2942219
v      0.0972321     -0.2421434      0.1009797
v      0.0007332      0.0024644      0.1221002
v     -0.2416139     -0.1378847      0.1363164
v     -0.1285159     -0.3043035      0.3366464
v      0.0463146     -0.2732642      0.1145645
v      0.0012220      0.0022404      0.0813866
v     -0.2635899     -0.0579238      0.1217133
v     -0.1863174     -0.2667468      0.2883562
v     -0.0546040     -0.2629585      0.0429133
v      0.0020163      0.0016090      0.1129962
v     -0.2705554      0.0088189      0.0972321
v     -0.2831015     -0.1774374      0.3012485
v     -0.1063158     -0.2478869      0.1000020
v      0.0024033      0.0014257      0.1016925
v     -0.2783152      0.0651948      0.0960101
v     -0.3259741     -0.1471720      0.2899652
v     -0.1639952     -0.2289456      0.0611418
v      0.0025662      0.0006517      0.0985356
v     -0.2668893      0.1180065      0.0894519
v     -0.3409642     -0.0451740      0.3273590
v     -0.2022648     -0.2080490      0.1195340
v      0.0026884     -0.0000407      0.1273957
v     -0.2142202      0.1857064      0.1075989
v     -0.3479501      0.0455610      0.3234485
v     -0.2370924     -0.1539746      0.1441577
v      0.0026681     -0.0004277      0.1391882
v     -0.1867044      0.2171531      0.1261940
v     -0.3353836      0.0950936      0.3463003
v     -0.2652600     -0.1056233      0.1451557
v      0.0024440     -0.0009369      0.1241166
v     -0.1443614      0.2415935      0.1047272
v     -0.3022057      0.1589442      0.3308214
v     -0.2724903     -0.0641154      0.1508585
v      0.0019960     -0.0016294      0.1291676
v     -0.0619768      0.2562781      0.0928328
v     -0.2355649      0.2382126      0.3009634
v     -0.2642213      0.0216501      0.1390456
v      0.0015886     -0.0020774      0.1205116
v      0.0210188      0.2616958      0.0979042
v     -0.1747286      0.2876230      0.2803316
v     -0.2398623      0.1033015      0.0952973
v      0.0009980     -0.0025662      0.0894316
v      0.1229557      0.2545673      0.1026701
v     -0.0920385      0.3426750      0.2739974
v     -0.1936088      0.1993931      0.0444205
v      0.0000204     -0.0026070      0.0840954
v      0.1713681      0.2066437      0.0573331
v      0.0348276      0.3383368      0.2570317
v     -0.1416322      0.2282531      0.0759486
v     -0.0006925     -0.0026070      0.1217133
v      0.2429377      0.1393307      0.1244425
v      0.1273957      0.3252408      0.3080511
v     -0.0654799      0.2704332      0.1041976
v     -0.0009572     -0.0024644      0.0961119
v      0.2583759      0.1213263      0.1064380
v      0.1591682      0.3013096      0.3129595
v     -0.0333408      0.2824090      0.0946251
v     -0.0016701     -0.0019349      0.1158272
v      0.2776228      0.0340333      0.1217133
v      0.2443227      0.2233039      0.3326748
v      0.0492271      0.2738956      0.1302674
v     -0.0021385     -0.0016905      0.1268865
v      0.2776839     -0.0293896      0.1255015
v      0.2955457      0.1857064      0.3111876
v      0.1190452      0.2492922      0.0965396
v     -0.0023829     -0.0011813      0.1153588
v      0.2639565     -0.0964378      0.1380680
v      0.3197214      0.1164586      0.3227764
v      0.1870507      0.2066030      0.0838510
f       1       2       3
f       1       3       4
f       5       6       7
f       5       7       8
f       9      10      11
f       9      11      12
f      13      14      15
f      13      15      16
f      17      18      19
f      17      19      20
f      21      22      23
f      21      23      24
f      25      26      27
f      25      27      28
f      29      30      31
f      29      31      32
f      33      34      35
f      33      35      36
f      37      38      39
f      37      39      40
f      41      42      43
f      41      43      44
f      45      46      47
f      45      47      48
f      49      50      51
f      49      51      52
f      53      54      55
f      53      55      56
f      57      58      59
f      57      59      60
f      61      62      63
f      61      63      64
f      65      66      67
f      65      67      68
f      69      70      71
f      69      71      72
f      73      74      75
f      73      75      76
f      77      78      79
f      77      79      80
f      81      82      83
f      81      83      84
f      85      86      87
f      85      87      88
f      89      90      91
f      89      91      92
f      93      94      95
f      93      95      96
f      97      98      99
f      97      99     100
f     101     102     103
f     101     103     104
f     105     106     107
f     105     107     108
f     109     110     111
f     109     111     112
f     113     114     115
f     113     115     116
f     117     118     119
f     117     119     120
f     121     122     123
f     121     123     124
f     125     126     127
f     125     127     128
f     129     130     131
f     129     131     132
f     133     134     135
f     133     135     136
f     137     138     139
f     137     139     140
f     141     142     143
f     141     143     144
f     145     146     147
f     145     147     148
f     149     150     151
f     149     151     152
f     153     154     155
f     153     155     156
f     157     158     159
f     157     159     160
f     161     162     163
f     161     163     164
f     165     166     167
f     165     167     168
f     169     170     171
f     169     171     172
f     173     174     175
f     173     175     176
f     177     178     179
f     177     179     180
f     181     182     183
f     181     183     184
f     185     186     187
f     185     187     188
f     189     190     191
f     189     191     192
f     193     194     195
f     193     195     196
f     197     198     199
f     197     199     200
f     201     202     203
f     201     203     204
f     205     206     207
f     205     207     208
f     209     210     211
f     209     211     212
f     213     214     215
f     213     215     216
f     217     218     219
f     217     219     220
f     221     222     223
f     221     223     224
f     225     226     227
f     225     227     228
f     229     230     231
f     229     231     232
f     233     234     235
f     233     235     236
f     237     238     239
f     237     239     240
f     241     242     243
f     241     243     244
f     245     246     247
f     245     247     248
f     249     250     251
f     249     251     252
f     253     254     255
f     253     255     256
f     257     258     259
f     257     259     260
f     261     262     263
f     261     263     264
f     265     266     267
f     265     267     268
f     269     270     271
f     269     271     272
f     273     274     275
f     273     275     276
f     277     278     279
f     277     279     280
f     281     282     283
f     281     283     284
f     285     286     287
f     285     287     288
f     289     290     291
f     289     291     292
f     293     294     295
f     293     295     296
f     297     298     299
f     297     299     300
f     301     302     303
f     301     303     304
f     305     306     307
f     305     307     308
f     309     310     311
f     309     311     312
f     313     314     315
f     313     315     316
f     317     318     319
f     317     319     320
f     321     322     323
f     321     323     324
f     325     326     327
f     325     327     328
f     329     330     331
f     329     331     332
f     333     334     335
f     333     335     336
f     337     338     339
f     337     339     340
f     341     342     343
f     341     343     344
f     345     346     347
f     345     347     348
f     349     350     351
f     349     351     352
f     353     354     355
f     353     355     356
f     357     358     359
f     357     359     360
f     361     362     363
f     361     363     364
f     365     366     367
f     365     367     368
f     369     370     371
f     369     371     372
f     373     374     375
f     373     375     376
f     377     378     379
f     377     379     380
f     381     382     383
f     381     383     384
f     385     386     387
f     385     387     388
f     389     390     391
f     389     391     392
f     393     394     395
f     393     395     396
f     397     398     399
f     397     399     400
f     401     402     403
f     401     403     404
f     405     406     407
f     405     407     408
f     409     410     411
f     409     411     412
f     413     414     415
f     413     415     416
f     417     418     419
f     417     419     420
f     421     422     423
f     421     423     424
f     425     426     427
f     425     427     428
f     429     430     431
f     429     431     432
f     433     434     435
f     433     435     436
f     437     438     439
f     437     439     440
f     441     442     443
f     441     443     444
f     445     446     447
f     445     447     448
