v      0.0190433     -0.0044359      0.9034569
v      0.0169578      0.0102977      0.9034569
v      0.0208679      0.0033770      0.9034990
v      0.0676911     -0.0138654      0.7988905
v      0.1083444     -0.0051898      0.7479708
v      0.1006317      0.0402793      0.7479708
v      0.0594004      0.0350110      0.7988905
v      0.1177997      0.0197958      0.7624634
v      0.0704686      0.0117471      0.8168209
v      0.0051378      0.0176288      0.9034569
v     -0.0172257      0.0044235      0.9034569
v      0.0126144      0.0165060      0.9034990
v      0.0587271      0.0368052      0.7988905
v      0.0801923      0.0725412      0.7479708
v      0.0431302      0.0987986      0.7479708
v      0.0166366      0.0666250      0.7988905
v      0.0694735      0.0966689      0.7624634
v      0.0417410      0.0574444      0.8168209
v     -0.0090404      0.0162546      0.9034569
v     -0.0020365      0.0200139      0.9034990
v      0.0162931      0.0663229      0.7988905
v      0.0084524      0.1072353      0.7479708
v     -0.0371731      0.1005094      0.7479708
v     -0.0327517      0.0590929      0.7988905
v     -0.0163099      0.1172088      0.7624634
v     -0.0092532      0.0696545      0.8168209
v     -0.0153413      0.0120468      0.9034990
v     -0.0345598      0.0584586      0.7988905
v     -0.0698703      0.0807740      0.7479708
v     -0.0969246      0.0442893      0.7479708
v     -0.0652846      0.0170241      0.7988905
v     -0.0942121      0.0705594      0.7624634
v     -0.0555624      0.0419237      0.8168209
v     -0.0152212     -0.0101662      0.9034569
v     -0.0190681     -0.0032100      0.9034990
v     -0.0655228      0.0144066      0.7988905
v     -0.1063839      0.0061348      0.7479708
v     -0.0990863     -0.0394027      0.7479708
v     -0.0576784     -0.0345435      0.7988905
v     -0.1160329     -0.0187718      0.7624634
v     -0.0685338     -0.0111795      0.8168209
v     -0.0034687     -0.0176049      0.9034569
v     -0.0109346     -0.0164139      0.9034990
v     -0.0570215     -0.0363436      0.7988905
v     -0.0789422     -0.0718498      0.7479708
v     -0.0421213     -0.0984445      0.7479708
v     -0.0152049     -0.0665464      0.7988905
v     -0.0684104     -0.0960827      0.7624634
v     -0.0402245     -0.0571371      0.8168209
v      0.0107216     -0.0163600      0.9034569
v      0.0036836     -0.0200553      0.9034990
v     -0.0148587     -0.0662473      0.7988905
v     -0.0075220     -0.1071973      0.7479708
v      0.0381631     -0.1008880      0.7479708
v      0.0342500     -0.0594654      0.7988905
v      0.0171821     -0.1174046      0.7624634
v      0.0106561     -0.0698120      0.8168209
v      0.0170605     -0.0122099      0.9034990
v      0.0360639     -0.0588477      0.7988905
v      0.0710390     -0.0814517      0.7479708
v      0.0984250     -0.0452156      0.7479708
v      0.0671655     -0.0176952      0.7988905
v      0.0955068     -0.0714682      0.7624634
v      0.0572165     -0.0425050      0.8168209
v      0.0008594      0.0000058      1.0000145
v      0.0086331      0.0019474      0.7579233
v      0.1071649      0.0546836      0.6772129
v      0.0048978      0.0071098      0.7579233
v      0.0813133      0.0884234      0.6772129
v      0.0077621      0.0052707      0.7620027
v      0.1082368      0.0822787      0.6879361
v      0.0441113      0.0124867      0.7369394
v      0.0862946      0.0313736      0.7022138
v      0.0533987      0.0743069      0.7022138
v      0.0241869      0.0384906      0.7369394
v      0.0771789      0.0584584      0.7188345
v      0.0378323      0.0283107      0.7487881
v     -0.0010437      0.0075227      0.7579233
v      0.0372350      0.1138845      0.6772129
v     -0.0068721     -0.0019488      0.7579233
v     -0.0049080      0.1194208      0.6772129
v      0.0020119      0.0085923      0.7620027
v      0.0184604      0.1341366      0.6879361
v      0.0232399      0.0393313      0.7369394
v      0.0383880      0.0826990      0.7022138
v     -0.0139895      0.0895798      0.7022138
v     -0.0105565      0.0437710      0.7369394
v      0.0134024      0.0952979      0.7188345
v      0.0069461      0.0461517      0.7487881
v     -0.0515412      0.1074761      0.6772129
v     -0.0061380      0.0041678      0.7579233
v     -0.0858332      0.0823615      0.6772129
v     -0.0042372      0.0069916      0.7620027
v     -0.0791064      0.1091456      0.6879361
v     -0.0106640      0.0434885      0.7369394
v     -0.0286326      0.0860711      0.7022138
v     -0.0722685      0.0541131      0.7022138
v     -0.0370934      0.0241323      0.7369394
v     -0.0559085      0.0775444      0.7188345
v     -0.0266204      0.0375538      0.7487881
v     -0.1122432      0.0388454      0.6772129
v     -0.1186913     -0.0031678      0.6772129
v     -0.0076826      0.0013147      0.7620027
v     -0.1328973      0.0205139      0.6879361
v     -0.0379544      0.0232037      0.7369394
v     -0.0809838      0.0392879      0.7022138
v     -0.0889978     -0.0129283      0.7022138
v     -0.0431255     -0.0104886      0.7369394
v     -0.0941211      0.0145811      0.7188345
v     -0.0451263      0.0070614      0.7487881
v     -0.1059848     -0.0537340      0.6772129
v     -0.0031961     -0.0070728      0.7579233
v     -0.0804421     -0.0877083      0.6772129
v     -0.0060436     -0.0052076      0.7620027
v     -0.1073084     -0.0813180      0.6879361
v     -0.0424572     -0.0120916      0.7369394
v     -0.0848110     -0.0305928      0.7022138
v     -0.0523084     -0.0738246      0.7022138
v     -0.0227708     -0.0382763      0.7369394
v     -0.0759430     -0.0577597      0.7188345
v     -0.0363228     -0.0279724      0.7487881
v      0.0027414     -0.0075400      0.7579233
v     -0.0365981     -0.1135706      0.6772129
v      0.0054926     -0.1194912      0.6772129
v     -0.0003240     -0.0085816      0.7620027
v     -0.0180092     -0.1339932      0.6879361
v     -0.0218316     -0.0391256      0.7369394
v     -0.0373749     -0.0823533      0.7022138
v      0.0149377     -0.0897118      0.7022138
v      0.0119229     -0.0438736      0.7369394
v     -0.0125054     -0.0951797      0.7188345
v     -0.0056008     -0.0460944      0.7487881
v      0.0522329     -0.1079727      0.6772129
v      0.0078659     -0.0042316      0.7579233
v      0.0867526     -0.0831720      0.6772129
v      0.0059396     -0.0070380      0.7620027
v      0.0797819     -0.1098937      0.6879361
v      0.0120330     -0.0435921      0.7369394
v      0.0296121     -0.0863368      0.7022138
v      0.0735380     -0.0547785      0.7022138
v      0.0386379     -0.0244778      0.7369394
v      0.0569646     -0.0780595      0.7188345
v      0.0280427     -0.0378032      0.7487881
v      0.1135587     -0.0398987      0.6772129
v      0.1203900      0.0020539      0.6772129
v      0.0094367     -0.0013928      0.7620027
v      0.1343793     -0.0217565      0.6879361
v      0.0395073     -0.0235573      0.7369394
v      0.0823881     -0.0400335      0.7022138
v      0.0908784      0.0121075      0.7022138
v      0.0449858      0.0100866      0.7369394
v      0.0957505     -0.0154475      0.7188345
v      0.0468263     -0.0074810      0.7487881
v      0.0100118      0.0001502      0.6751261
v      0.1290285      0.0321037      0.5701985
v      0.0071994      0.0068651      0.6751261
v      0.1096966      0.0749269      0.5701985
v      0.0099075      0.0040739      0.6797869
v      0.1371286      0.0615357      0.5820521
v      0.0522236      0.0026441      0.6511516
v      0.1040666      0.0126804      0.6114767
v      0.0786406      0.0690029      0.6114767
v      0.0368235      0.0367577      0.6511516
v      0.1009727      0.0451841      0.6304663
v      0.0493553      0.0218820      0.6646889
v      0.0006968      0.0088704      0.6751261
v      0.0686628      0.1134275      0.5701985
v     -0.0082517     -0.0001502      0.6751261
v      0.0246961      0.1299951      0.5701985
v      0.0043745      0.0092653      0.6797869
v      0.0535529      0.1399519      0.5820521
v      0.0359886      0.0379392      0.6511516
v      0.0641248      0.0822448      0.6114767
v      0.0076448      0.1035277      0.6114767
v     -0.0004547      0.0516719      0.6511516
v      0.0396062      0.1027621      0.6304663
v      0.0196363      0.0497663      0.6646889
v     -0.0285039      0.1288775      0.5701985
v     -0.0058434      0.0064633      0.6751261
v     -0.0717360      0.1104780      0.5701985
v     -0.0029943      0.0091104      0.6797869
v     -0.0577534      0.1376135      0.5820521
v     -0.0006478      0.0513856      0.6511516
v     -0.0095587      0.1034340      0.6114767
v     -0.0664188      0.0792344      0.6114767
v     -0.0350872      0.0367283      0.6511516
v     -0.0421217      0.1010450      0.6304663
v     -0.0199435      0.0489349      0.6646889
v     -0.1111165      0.0702880      0.5701985
v     -0.1286328      0.0266906      0.5701985
v     -0.0083042      0.0036913      0.6797869
v     -0.1379620      0.0557562      0.5820521
v     -0.0362865      0.0359193      0.6511516
v     -0.0799720      0.0650087      0.6114767
v     -0.1024736      0.0090031      0.6114767
v     -0.0508057     -0.0002181      0.6511516
v     -0.1010157      0.0409405      0.6304663
v     -0.0484653      0.0198269      0.6646889
v     -0.1276853     -0.0309345      0.5701985
v     -0.0054954     -0.0068071      0.6751261
v     -0.1087449     -0.0739324      0.5701985
v     -0.0081780     -0.0039913      0.6797869
v     -0.1360537     -0.0602912      0.5820521
v     -0.0504792     -0.0021753      0.6511516
v     -0.1024118     -0.0117382      0.6114767
v     -0.0775008     -0.0682905      0.6114767
v     -0.0353910     -0.0364281      0.6511516
v     -0.0996146     -0.0442687      0.6304663
v     -0.0477867     -0.0214388      0.6646889
v      0.0009886     -0.0088718      0.6751261
v     -0.0680641     -0.1128057      0.5701985
v     -0.0242506     -0.1297740      0.5701985
v     -0.0026926     -0.0092329      0.6797869
v     -0.0531970     -0.1394669      0.5820521
v     -0.0345672     -0.0376173      0.6511516
v     -0.0631065     -0.0816642      0.6114767
v     -0.0068230     -0.1034617      0.6114767
v      0.0017495     -0.0516821      0.6511516
v     -0.0387760     -0.1024043      0.6304663
v     -0.0183234     -0.0495932      0.6646889
v      0.0289575     -0.1291419      0.5701985
v      0.0075505     -0.0065246      0.6751261
v      0.0723557     -0.1111377      0.5701985
v      0.0046773     -0.0091454      0.6797869
v      0.0581260     -0.1381445      0.5820521
v      0.0019452     -0.0513975      0.6511516
v      0.0103806     -0.1035250      0.6114767
v      0.0674592     -0.0798452      0.6114767
v      0.0365169     -0.0370551      0.6511516
v      0.0429641     -0.1014332      0.6304663
v      0.0212624     -0.0491229      0.6646889
v      0.1121014     -0.0713088      0.5701985
v      0.1300148     -0.0278731      0.5701985
v      0.0100365     -0.0037750      0.6797869
v      0.1390783     -0.0570228      0.5820521
v      0.0377236     -0.0362569      0.6511516
v      0.0811417     -0.0657439      0.6114767
v      0.1041536     -0.0099460      0.6114767
v      0.0525718     -0.0002536      0.6511516
v      0.1024041     -0.0418687      0.6304663
v      0.0500485     -0.0202766      0.6646889
v      0.0097988      0.0019660      0.5763829
v      0.1397520      0.0663894      0.4976376
v      0.0057047      0.0079858      0.5763829
v      0.1077534      0.1107739      0.4976376
v      0.0089147      0.0057903      0.5810439
v      0.1421667      0.1018569      0.5114417
v      0.0506672      0.0128208      0.5596488
v      0.0994710      0.0329857      0.5301958
v      0.0633324      0.0831126      0.5301958
v      0.0287787      0.0431819      0.5596488
v      0.0899626      0.0642211      0.5491854
v      0.0440233      0.0311015      0.5731862
v     -0.0010668      0.0086555      0.5763829
v      0.0519912      0.1451899      0.4976376
v     -0.0080387     -0.0019674      0.5763829
v     -0.0020285      0.1538949      0.4976376
v      0.0024584      0.0097752      0.5810439
v      0.0285929      0.1719536      0.5114417
v      0.0277252      0.0441734      0.5596488
v      0.0464692      0.0931966      0.5301958
v     -0.0131189      0.1027990      0.5301958
v     -0.0107237      0.0503693      0.5596488
v      0.0183542      0.1084171      0.5491854
v      0.0093442      0.0525051      0.5731862
v     -0.0624818      0.1402747      0.4976376
v     -0.0069963      0.0049936      0.5763829
v     -0.1075493      0.1092452      0.4976376
v     -0.0047317      0.0081552      0.5810439
v     -0.0978889      0.1434572      0.5114417
v     -0.0108559      0.0500502      0.5596488
v     -0.0299587      0.0992794      0.5301958
v     -0.0808569      0.0642354      0.5301958
v     -0.0416841      0.0288246      0.5596488
v     -0.0613929      0.0904501      0.5491854
v     -0.0292764      0.0438039      0.5731862
v     -0.1431652      0.0542418      0.4976376
v     -0.1530386      0.0004234      0.4976376
v     -0.0088556      0.0017866      0.5810439
v     -0.1704297      0.0314288      0.5114417
v     -0.0426982      0.0277929      0.5596488
v     -0.0913039      0.0475947      0.5301958
v     -0.1021951     -0.0117715      0.5301958
v     -0.0497257     -0.0105128      0.5596488
v     -0.1071301      0.0198159      0.5491854
v     -0.0514262      0.0095966      0.5731862
v     -0.1385858     -0.0651192      0.4976376
v     -0.0040111     -0.0079415      0.5763829
v     -0.1069935     -0.1097941      0.4976376
v     -0.0072009     -0.0057168      0.5810439
v     -0.1413240     -0.1005634      0.5114415
v     -0.0490160     -0.0123659      0.5596488
v     -0.0980016     -0.0320846      0.5301958
v     -0.0623221     -0.0825392      0.5301958
v     -0.0274054     -0.0429254      0.5596488
v     -0.0887787     -0.0634054      0.5491854
v     -0.0425390     -0.0307064      0.5731862
v      0.0027542     -0.0086728      0.5763829
v     -0.0515478     -0.1447173      0.4976376
v      0.0023901     -0.1539150      0.4976376
v     -0.0007812     -0.0097603      0.5810439
v     -0.0283947     -0.1716935      0.5114415
v     -0.0263610     -0.0439265      0.5596488
v     -0.0455515     -0.0927767      0.5301958
v      0.0139464     -0.1029226      0.5301958
v      0.0120300     -0.0504731      0.5596488
v     -0.0175767     -0.1082531      0.5491854
v     -0.0080567     -0.0524256      0.5731862
v      0.0629654     -0.1408471      0.4976376
v      0.0087167     -0.0050652      0.5763829
v      0.1083142     -0.1102303      0.4976376
v      0.0064234     -0.0082060      0.5810439
v      0.0983419     -0.1443527      0.5114415
v      0.0121649     -0.0501553      0.5596488
v      0.0308177     -0.0995568      0.5301958
v      0.0820337     -0.0649788      0.5301958
v      0.0431855     -0.0292120      0.5596488
v      0.0623310     -0.0910146      0.5491854
v      0.0306416     -0.0440773      0.5731862
v      0.1444306     -0.0555542      0.4976376
v      0.1547947     -0.0018282      0.4976376
v      0.0106052     -0.0018755      0.5810439
v      0.1719020     -0.0329910      0.5114415
v      0.0442091     -0.0281894      0.5596488
v      0.0926319     -0.0484340      0.5301958
v      0.1040645      0.0108303      0.5301958
v      0.0515860      0.0100505      0.5596488
v      0.1087110     -0.0208010      0.5491854
v      0.0531028     -0.0100736      0.5731862
v      0.0120037      0.0001829      0.5285445
v      0.1827783      0.0455471      0.4326155
v      0.0085776      0.0083632      0.5285445
v      0.1553522      0.1063000      0.4326155
v      0.0118767      0.0049629      0.5342225
v      0.1942701      0.0873019      0.4494318
v      0.0634269      0.0032210      0.4939630
v      0.1265833      0.0154475      0.4580829
v      0.0956087      0.0840606      0.4580829
v      0.0446663      0.0447789      0.4939630
v      0.1228141      0.0550440      0.4812163
v      0.0599327      0.0266571      0.5104545
v      0.0006562      0.0108061      0.5285445
v      0.0971378      0.1609206      0.4326155
v     -0.0102452     -0.0001829      0.5285445
v      0.0347625      0.1844250      0.4326155
v      0.0051364      0.0112871      0.5342225
v      0.0757015      0.1985505      0.4494318
v      0.0436494      0.0462184      0.4939630
v      0.0779253      0.1001920      0.4580829
v      0.0091202      0.1261193      0.4580829
v     -0.0007469      0.0629477      0.4939630
v      0.0480562      0.1251865      0.4812163
v      0.0237285      0.0606264      0.5104545
v     -0.0407121      0.1828394      0.4326155
v     -0.0073112      0.0078738      0.5285445
v     -0.1020451      0.1567361      0.4326155
v     -0.0038404      0.0110985      0.5342225
v     -0.0822082      0.1952331      0.4494318
v     -0.0009819      0.0625990      0.4939630
v     -0.0118373      0.1260053      0.4580829
v     -0.0811053      0.0965247      0.4580829
v     -0.0429366      0.0447430      0.4939630
v     -0.0515062      0.1230948      0.4812163
v     -0.0244883      0.0596133      0.5104545
v     -0.1579142      0.0997185      0.4326155
v     -0.1827645      0.0378673      0.4326155
v     -0.0103090      0.0044968      0.5342225
v     -0.1959997      0.0791027      0.4494318
v     -0.0443977      0.0437575      0.4939630
v     -0.0976160      0.0791948      0.4580829
v     -0.1250281      0.0109677      0.4580829
v     -0.0620851     -0.0002657      0.4939630
v     -0.1232520      0.0498743      0.4812163
v     -0.0592340      0.0241536      0.5104545
v     -0.1814202     -0.0438851      0.4326155
v     -0.0068873     -0.0082925      0.5285445
v     -0.1545497     -0.1048859      0.4326155
v     -0.0101552     -0.0048623      0.5342225
v     -0.1932925     -0.0855333      0.4494318
v     -0.0616874     -0.0026500      0.4939630
v     -0.1249527     -0.0142997      0.4580828
v     -0.0946056     -0.0831926      0.4580828
v     -0.0433068     -0.0443773      0.4939630
v     -0.1215449     -0.0539290      0.4812163
v     -0.0584073     -0.0261172      0.5104545
v      0.0010115     -0.0108077      0.5285445
v     -0.0968361     -0.1600355      0.4326155
v     -0.0346780     -0.1841082      0.4326155
v     -0.0034729     -0.0112478      0.5342225
v     -0.0757442     -0.1978595      0.4494318
v     -0.0423030     -0.0458261      0.4939630
v     -0.0770701     -0.0994847      0.4580828
v     -0.0085046     -0.1260389      0.4580828
v      0.0019385     -0.0629599      0.4939630
v     -0.0474305     -0.1247508      0.4812163
v     -0.0225146     -0.0604153      0.5104545
v      0.0408080     -0.1832113      0.4326155
v      0.0090054     -0.0079483      0.5285445
v      0.1023768     -0.1576688      0.4326155
v      0.0055052     -0.0111412      0.5342225
v      0.0821893     -0.1959833      0.4494318
v      0.0021769     -0.0626134      0.4939630
v      0.0124530     -0.1261161      0.4580828
v      0.0819873     -0.0972689      0.4580828
v      0.0442928     -0.0451410      0.4939630
v      0.0521468     -0.1235678      0.4812163
v      0.0257095     -0.0598424      0.5104545
v      0.1587638     -0.1011638      0.4326155
v      0.1841775     -0.0395418      0.4326155
v      0.0120340     -0.0045987      0.5342225
v      0.1970360     -0.0808961      0.4494318
v      0.0457628     -0.0441689      0.4939630
v      0.0986556     -0.0800905      0.4580828
v      0.1266890     -0.0121165      0.4580828
v      0.0638512     -0.0003089      0.4939630
v      0.1245579     -0.0510052      0.4812163
v      0.0607773     -0.0247011      0.5104545
v      0.0124061     -0.0038214      0.4464099
v      0.2047030     -0.0186621      0.3417012
v      0.0118259      0.0058416      0.4464099
v      0.1983533      0.0538177      0.3417012
v      0.0139988      0.0011489      0.4526075
v      0.2315980      0.0202122      0.3600566
v      0.0664801     -0.0192332      0.4022368
v      0.1359550     -0.0294094      0.3630727
v      0.1287838      0.0524475      0.3630727
v      0.0621366      0.0303462      0.4022368
v      0.1463493      0.0127438      0.3883234
v      0.0713307      0.0061717      0.4202376
v      0.0045457      0.0112148      0.4464099
v      0.1580728      0.1310810      0.3417012
v     -0.0106477      0.0038240      0.4464099
v      0.1022861      0.1777872      0.3417012
v      0.0093348      0.0100948      0.4526075
v      0.1495566      0.1775784      0.3600566
v      0.0616080      0.0321958      0.4022368
v      0.1163821      0.0754431      0.3630727
v      0.0548446      0.1269638      0.3630727
v      0.0219013      0.0654393      0.4022368
v      0.0946220      0.1119635      0.3883234
v      0.0462798      0.0542225      0.4202376
v      0.0239569      0.2033677      0.3417012
v     -0.0047200      0.0110668      0.4464099
v     -0.0486435      0.1985899      0.3417012
v      0.0000186      0.0131374      0.4526075
v     -0.0143254      0.2310987      0.3600566
v      0.0215332      0.0651649      0.4022368
v      0.0332122      0.1344030      0.3630727
v     -0.0487809      0.1290070      0.3630727
v     -0.0281287      0.0618966      0.4022368
v     -0.0087059      0.1457081      0.3883234
v     -0.0037606      0.0705647      0.4202376
v     -0.1267613      0.1599929      0.3417012
v     -0.1746651      0.1052311      0.3417012
v     -0.0090262      0.0086684      0.4526075
v     -0.1734323      0.1524860      0.3600566
v     -0.0299895      0.0614081      0.4022368
v     -0.0720397      0.1171064      0.3630727
v     -0.1248816      0.0566996      0.3630727
v     -0.0640854      0.0224309      0.4022368
v     -0.1090231      0.0961428      0.3883234
v     -0.0523430      0.0465607      0.4202376
v     -0.2027579      0.0205215      0.3417012
v     -0.0101123     -0.0057415      0.4464099
v     -0.1970699     -0.0520133      0.3417012
v     -0.0122423     -0.0010292      0.4526075
v     -0.2300064     -0.0181056      0.3600566
v     -0.0645354      0.0198311      0.4022366
v     -0.1339146      0.0306409      0.3630727
v     -0.1274908     -0.0512781      0.3630727
v     -0.0606448     -0.0297859      0.4022366
v     -0.1446933     -0.0114156      0.3883234
v     -0.0696178     -0.0055285      0.4202376
v     -0.0028816     -0.0111809      0.4464099
v     -0.1574962     -0.1296408      0.3417012
v     -0.1021381     -0.1768542      0.3417012
v     -0.0076602     -0.0100173      0.4526075
v     -0.1494047     -0.1762141      0.3600566
v     -0.0601330     -0.0316402      0.4022366
v     -0.1152995     -0.0743859      0.3630727
v     -0.0542348     -0.1264660      0.3630727
v     -0.0207312     -0.0652449      0.4022366
v     -0.0938736     -0.1111034      0.3883234
v     -0.0450064     -0.0538060      0.4202376
v     -0.0240456     -0.2031487      0.3417012
v      0.0063851     -0.0111174      0.4464099
v      0.0485953     -0.1990336      0.3417012
v      0.0016278     -0.0131448      0.4526075
v      0.0139820     -0.2312278      0.3600566
v     -0.0203606     -0.0649737      0.4022366
v     -0.0326712     -0.1341023      0.3630727
v      0.0493678     -0.1294549      0.3630727
v      0.0293291     -0.0621588      0.4022366
v      0.0091421     -0.1457895      0.3883234
v      0.0048828     -0.0706041      0.4202376
v      0.1270620     -0.1611511      0.3417012
v      0.1754638     -0.1068288      0.3417012
v      0.0107130     -0.0087586      0.4526075
v      0.1737997     -0.1540706      0.3600566
v      0.0311941     -0.0616873      0.4022366
v      0.0727343     -0.1177669      0.3630727
v      0.1261252     -0.0578451      0.3630727
v      0.0656443     -0.0230229      0.4022366
v      0.1099073     -0.0971419      0.3883234
v      0.0536822     -0.0470445      0.4202376
v      0.0129503     -0.0079844      0.3656572
v      0.2295661     -0.0849344      0.2408565
v      0.0152916      0.0033136      0.3656572
v      0.2448289      0.0004302      0.2408565
v      0.0163302     -0.0027619      0.3730441
v      0.2726128     -0.0485841      0.2627342
v      0.0703634     -0.0425528      0.3130079
v      0.1471254     -0.0758929      0.2663288
v      0.1643630      0.0205159      0.2663288
v      0.0808039      0.0158405      0.3130079
v      0.1722093     -0.0306324      0.2964249
v      0.0838544     -0.0148349      0.3344628
v      0.0085888      0.0117622      0.3656572
v      0.2225440      0.1018634      0.2408565
v     -0.0111923      0.0079898      0.3656572
v      0.1729046      0.1729690      0.2408565
v      0.0137501      0.0089825      0.3730441
v      0.2272241      0.1580101      0.2627342
v      0.0807715      0.0181331      0.3130079
v      0.1572549      0.0508337      0.2663288
v      0.1024986      0.1292690      0.2663288
v      0.0454403      0.0687433      0.3130079
v      0.1435916      0.0996258      0.2964249
v      0.0699951      0.0482475      0.3344628
v      0.0907524      0.2267889      0.2408565
v     -0.0021174      0.0144768      0.3656572
v      0.0057384      0.2438978      0.2408565
v      0.0039791      0.0153837      0.3730441
v      0.0553435      0.2706134      0.2627342
v      0.0449313      0.0685420      0.3130079
v      0.0799270      0.1445636      0.2663288
v     -0.0160859      0.1638859      0.2663288
v     -0.0132220      0.0802452      0.3130079
v      0.0352204      0.1706223      0.2964249
v      0.0175123      0.0826302      0.3344628
v     -0.0961538      0.2238158      0.2408565
v     -0.1683181      0.1757288      0.2408565
v     -0.0078185      0.0130585      0.3730441
v     -0.1521860      0.2297113      0.2627342
v     -0.0155148      0.0802625      0.3130079
v     -0.0465506      0.1574364      0.2663288
v     -0.1261539      0.1043923      0.2663288
v     -0.0668785      0.0460362      0.3130079
v     -0.0956273      0.1448335      0.2964249
v     -0.0458557      0.0701411      0.3344628
v     -0.2270149      0.0870178      0.2408565
v     -0.0135549     -0.0031820      0.3656572
v     -0.2430564      0.0017960      0.2408565
v     -0.0145381      0.0029028      0.3730441
v     -0.2703918      0.0510621      0.2627342
v     -0.0682058      0.0431852      0.3130079
v     -0.1446604      0.0772244      0.2663288
v     -0.1627770     -0.0190232      0.2663288
v     -0.0791789     -0.0151104      0.3130079
v     -0.1701563      0.0321947      0.2964247
v     -0.0819492      0.0155916      0.3344628
v     -0.0069295     -0.0116913      0.3656572
v     -0.2216981     -0.0998362      0.2408565
v     -0.1727098     -0.1713919      0.2408565
v     -0.0120652     -0.0088647      0.3730441
v     -0.2268905     -0.1559379      0.2627342
v     -0.0791675     -0.0174032      0.3130079
v     -0.1559459     -0.0494045      0.2663288
v     -0.1019079     -0.1283363      0.2663288
v     -0.0442995     -0.0683337      0.3130079
v     -0.1427285     -0.0983191      0.2964247
v     -0.0686663     -0.0476148      0.3344628
v     -0.0910520     -0.2259593      0.2408565
v      0.0037515     -0.0145036      0.3656572
v     -0.0061978     -0.2438433      0.2408565
v     -0.0023530     -0.0153548      0.3730441
v     -0.0560445     -0.2701049      0.2627342
v     -0.0437887     -0.0681371      0.3130079
v     -0.0794766     -0.1438361      0.2663288
v      0.0163558     -0.1640340      0.2663288
v      0.0142554     -0.0803705      0.3130079
v     -0.0350098     -0.1703018      0.2964247
v     -0.0164993     -0.0824751      0.3344628
v      0.0958734     -0.2246922      0.2408565
v      0.1684737     -0.1772656      0.2408565
v      0.0094652     -0.0131374      0.3730441
v      0.1518494     -0.2310988      0.2627342
v      0.0165480     -0.0804088      0.3130079
v      0.0468781     -0.1578628      0.2663288
v      0.1269622     -0.1055474      0.2663288
v      0.0682219     -0.0466526      0.3130079
v      0.0960677     -0.1457083      0.2964247
v      0.0469799     -0.0705647      0.3344628
v      0.0111478     -0.0115464      0.2919986
v      0.2135953     -0.1503142      0.1587483
v      0.0166598     -0.0005291      0.2919986
v      0.2527386     -0.0664055      0.1587483
v      0.0160668     -0.0070831      0.2998857
v      0.2679784     -0.1245993      0.1821070
v      0.0609217     -0.0629519      0.2357847
v      0.1309992     -0.1183925      0.1859452
v      0.1752066     -0.0236278      0.1859452
v      0.0876975     -0.0055546      0.2357847
v      0.1692873     -0.0785601      0.2180788
v      0.0824393     -0.0380456      0.2586922
v      0.0120582      0.0100262      0.2919986
v      0.2575381      0.0443744      0.1587483
v     -0.0093885      0.0115542      0.2919986
v      0.2257986      0.1313540      0.1587483
v      0.0166226      0.0057434      0.2998857
v      0.2777537      0.1010320      0.1821070
v      0.0882924     -0.0031799      0.2357847
v      0.1761796      0.0096061      0.1859452
v      0.1411684      0.1055519      0.1859452
v      0.0657015      0.0587288      0.2357847
v      0.1754506      0.0637009      0.2180788
v      0.0854241      0.0308496      0.2586922
v      0.1557707      0.2094055      0.1587483
v      0.0017539      0.0157616      0.2919986
v      0.0727299      0.2503576      0.1587483
v      0.0082937      0.0150266      0.2998857
v      0.1312401      0.2643329      0.1821070
v      0.0651211      0.0586606      0.2357847
v      0.1220670      0.1275204      0.1859452
v      0.0282823      0.1737706      0.1859452
v      0.0083173      0.0866735      0.2357847
v      0.0830736      0.1666625      0.2180788
v      0.0406869      0.0807125      0.2586922
v     -0.0379200      0.2575561      0.1587483
v     -0.1255669      0.2277086      0.1587483
v     -0.0045178      0.0158601      0.2998857
v     -0.0941263      0.2789946      0.1821070
v      0.0059561      0.0873198      0.2357847
v     -0.0049227      0.1754636      0.1859452
v     -0.1016044      0.1425393      0.1859452
v     -0.0564275      0.0660756      0.2357847
v     -0.0590206      0.1759068      0.2180788
v     -0.0281274      0.0851894      0.2586922
v     -0.2104484      0.1522492      0.1587483
v     -0.0148880      0.0006730      0.2919986
v     -0.2503557      0.0687013      0.1587483
v     -0.0142353      0.0072214      0.2998857
v     -0.2650637      0.1270317      0.1821070
v     -0.0585783      0.0634973      0.2357847
v     -0.1281469      0.1195750      0.1859452
v     -0.1732174      0.0252178      0.1859452
v     -0.0858768      0.0063466      0.2357847
v     -0.1667969      0.0800938      0.2180788
v     -0.0803222      0.0387885      0.2586922
v     -0.0103829     -0.0099238      0.2919986
v     -0.2561660     -0.0420301      0.1587483
v     -0.2252217     -0.1292958      0.1587483
v     -0.0149079     -0.0055995      0.2998857
v     -0.2768980     -0.0985010      0.1821070
v     -0.0864934      0.0039775      0.2357847
v     -0.1744937     -0.0080059      0.1859452
v     -0.1403596     -0.1042672      0.1859452
v     -0.0644684     -0.0581348      0.2357847
v     -0.1742585     -0.0621051      0.2180788
v     -0.0839358     -0.0300766      0.2586922
v     -0.1559092     -0.2079832      0.1587483
v     -0.0001315     -0.0157530      0.2919986
v     -0.0732454     -0.2496914      0.1587483
v     -0.0066641     -0.0149583      0.2998857
v     -0.1318809     -0.2631322      0.1821070
v     -0.0638875     -0.0580717      0.2357847
v     -0.1214595     -0.1264091      0.1859452
v     -0.0281008     -0.1735133      0.1859452
v     -0.0073417     -0.0866021      0.2357847
v     -0.0828249     -0.1659054      0.2180788
v     -0.0396556     -0.0803460      0.2586922
v      0.0373341     -0.2578995      0.1587483
v      0.1252497     -0.2288531      0.1587483
v      0.0061392     -0.0159088      0.2998857
v      0.0933425     -0.2798501      0.1821070
v     -0.0049866     -0.0872699      0.2357847
v      0.0050874     -0.1755091      0.1859452
v      0.1020656     -0.1434686      0.1859452
v      0.0575883     -0.0665958      0.2357847
v      0.0591790     -0.1764461      0.2180788
v      0.0291152     -0.0854507      0.2586922
v      0.0158850     -0.0068589      0.2328264
v      0.2870633     -0.0518484      0.0835912
v      0.0162630      0.0069330      0.2328264
v      0.2870633      0.0518484      0.0835912
v      0.0187645      0.0000000      0.2416596
v      0.3300842      0.0000000      0.1097521
v      0.0907426     -0.0354667      0.1698689
v      0.1881177     -0.0585564      0.1140506
v      0.1881177      0.0585564      0.1140506
v      0.0907426      0.0354667      0.1698689
v      0.2081188      0.0000000      0.1500390
v      0.1007894      0.0000000      0.1955244
v      0.0065950      0.0154673      0.2328264
v      0.2394832      0.1665574      0.0835912
v     -0.0158958      0.0068637      0.2328264
v      0.1660864      0.2398102      0.0835912
v      0.0132554      0.0132815      0.2416596
v      0.2331753      0.2336340      0.1097521
v      0.0902220      0.0381585      0.1698689
v      0.1733698      0.0927481      0.1140506
v      0.0924072      0.1735518      0.1140506
v      0.0379812      0.0902969      0.1698689
v      0.1470176      0.1473067      0.1500390
v      0.0711989      0.0713389      0.1955244
v      0.0580560      0.2858726      0.0835912
v     -0.0065789      0.0164095      0.2328264
v     -0.0456166      0.2881193      0.0835912
v      0.0004066      0.0187601      0.2416596
v      0.0071518      0.3300068      0.1097521
v      0.0374244      0.0899528      0.1698689
v      0.0626186      0.1868048      0.1140506
v     -0.0544669      0.1893423      0.1140506
v     -0.0334923      0.0914898      0.1698689
v      0.0045093      0.2080700      0.1500390
v      0.0021837      0.1007658      0.1955244
v     -0.1613297      0.2430357      0.0835912
v     -0.2361552      0.1712433      0.0835912
v     -0.0129911      0.0135400      0.2416596
v     -0.2285270      0.2381825      0.1097521
v     -0.0361948      0.0910277      0.1698689
v     -0.0889702      0.1753388      0.1140506
v     -0.1715090      0.0961457      0.1140506
v     -0.0894527      0.0399287      0.1698689
v     -0.1440868      0.1501747      0.1500390
v     -0.0697795      0.0727278      0.1955244
v     -0.2865781      0.0544662      0.0835910
v     -0.0163257     -0.0067842      0.2328263
v     -0.2875245     -0.0492263      0.0835910
v     -0.0187636      0.0001712      0.2416594
v     -0.3300703      0.0030125      0.1097519
v     -0.0904151      0.0362934      0.1698689
v     -0.1875755      0.0602709      0.1140506
v     -0.1886442     -0.0568372      0.1140506
v     -0.0910625     -0.0346370      0.1698689
v     -0.2081101      0.0018993      0.1500390
v     -0.1007852      0.0009198      0.1955244
v     -0.0067359     -0.0154064      0.2328263
v     -0.2409932     -0.1643648      0.0835910
v     -0.1682681     -0.2382844      0.0835910
v     -0.0133760     -0.0131600      0.2416594
v     -0.2352978     -0.2314962      0.1097519
v     -0.0905665     -0.0373336      0.1698689
v     -0.1742091     -0.0911621      0.1140506
v     -0.0939872     -0.1727014      0.1140506
v     -0.0388037     -0.0899465      0.1698689
v     -0.1483557     -0.1459588      0.1500390
v     -0.0718468     -0.0706862      0.1955244
v     -0.0606624     -0.2853307      0.0835910
v      0.0064289     -0.0164689      0.2328263
v      0.0429853     -0.2885236      0.0835910
v     -0.0005778     -0.0187555      0.2416594
v     -0.0101632     -0.3299277      0.1097519
v     -0.0382438     -0.0896075      0.1698689
v     -0.0643208     -0.1862256      0.1140506
v      0.0527367     -0.1898315      0.1140506
v      0.0326559     -0.0917916      0.1698689
v     -0.0064079     -0.2080201      0.1500390
v     -0.0031034     -0.1007416      0.1955244
v      0.1591048     -0.2444979      0.0835910
v      0.2345826     -0.1733913      0.0835910
v      0.0128670     -0.0136580      0.2416594
v      0.2263438     -0.2402582      0.1097519
v      0.0353625     -0.0913541      0.1698689
v      0.0873661     -0.1761434      0.1140506
v      0.1706244     -0.0977070      0.1140506
v      0.0890846     -0.0407434      0.1698689
v      0.1427103     -0.1514834      0.1500390
v      0.0691128     -0.0733616      0.1955244
v      0.0000000      0.0236261      0.0000145
v      0.0000000      0.0053457      0.9023481
v      0.0167062      0.0167062      0.0000145
v      0.0037801      0.0037801      0.9023481
v      0.0236261      0.0000000      0.0000145
v      0.0053457      0.0000000      0.9023481
v      0.0167062     -0.0167062      0.0000145
v      0.0037801     -0.0037801      0.9023481
v      0.0000000     -0.0236261      0.0000145
v      0.0000000     -0.0053457      0.9023481
v     -0.0167062     -0.0167062      0.0000145
v     -0.0037801     -0.0037801      0.9023481
v     -0.0236261      0.0000000      0.0000145
v     -0.0053457      0.0000000      0.9023481
v     -0.0167062      0.0167062      0.0000145
v     -0.0037801      0.0037801      0.9023481
f     770     771     773
f     770     773     772
f     772     773     775
f     772     775     774
f     774     775     777
f     774     777     776
f     776     777     779
f     776     779     778
f     778     779     781
f     778     781     780
f     780     781     783
f     780     783     782
f     782     783     785
f     782     785     784
f     784     785     771
f     784     771     770
f       1       4       9
f       1       9       3
f       4       5       8
f       4       8       9
f       3       9       7
f       3       7       2
f       9       8       6
f       9       6       7
f       2      13      18
f       2      18      12
f      13      14      17
f      13      17      18
f      12      18      16
f      12      16      10
f      18      17      15
f      18      15      16
f      10      21      26
f      10      26      20
f      21      22      25
f      21      25      26
f      20      26      24
f      20      24      19
f      26      25      23
f      26      23      24
f      19      28      33
f      19      33      27
f      28      29      32
f      28      32      33
f      27      33      31
f      27      31      11
f      33      32      30
f      33      30      31
f      11      36      41
f      11      41      35
f      36      37      40
f      36      40      41
f      35      41      39
f      35      39      34
f      41      40      38
f      41      38      39
f      34      44      49
f      34      49      43
f      44      45      48
f      44      48      49
f      43      49      47
f      43      47      42
f      49      48      46
f      49      46      47
f      42      52      57
f      42      57      51
f      52      53      56
f      52      56      57
f      51      57      55
f      51      55      50
f      57      56      54
f      57      54      55
f      50      59      64
f      50      64      58
f      59      60      63
f      59      63      64
f      58      64      62
f      58      62       1
f      64      63      61
f      64      61      62
f      10      20      65
f       2      12      65
f      42      51      65
f       1       3      65
f      34      43      65
f      50      58      65
f      12      10      65
f       3       2      65
f      20      19      65
f      51      50      65
f      35      34      65
f      43      42      65
f      11      35      65
f      19      27      65
f      27      11      65
f      58       1      65
f      76      71      69
f      76      69      74
f      73      67      71
f      73      71      76
f      66      72      77
f      66      77      70
f      72      73      76
f      72      76      77
f      70      77      75
f      70      75      68
f      77      76      74
f      77      74      75
f      88      83      81
f      88      81      86
f      85      79      83
f      85      83      88
f      68      84      89
f      68      89      82
f      84      85      88
f      84      88      89
f      82      89      87
f      82      87      78
f      89      88      86
f      89      86      87
f      99      94      92
f      99      92      97
f      96      90      94
f      96      94      99
f      78      95     100
f      78     100      93
f      95      96      99
f      95      99     100
f      93     100      98
f      93      98      91
f     100      99      97
f     100      97      98
f     109     104     102
f     109     102     107
f     106     101     104
f     106     104     109
f      91     105     110
f      91     110     103
f     105     106     109
f     105     109     110
f     103     110     108
f     103     108      80
f     110     109     107
f     110     107     108
f     120     115     113
f     120     113     118
f     117     111     115
f     117     115     120
f      80     116     121
f      80     121     114
f     116     117     120
f     116     120     121
f     114     121     119
f     114     119     112
f     121     120     118
f     121     118     119
f     131     126     124
f     131     124     129
f     128     123     126
f     128     126     131
f     112     127     132
f     112     132     125
f     127     128     131
f     127     131     132
f     125     132     130
f     125     130     122
f     132     131     129
f     132     129     130
f     142     137     135
f     142     135     140
f     139     133     137
f     139     137     142
f     122     138     143
f     122     143     136
f     138     139     142
f     138     142     143
f     136     143     141
f     136     141     134
f     143     142     140
f     143     140     141
f     152     147     145
f     152     145     150
f     149     144     147
f     149     147     152
f     134     148     153
f     134     153     146
f     148     149     152
f     148     152     153
f     146     153     151
f     146     151      66
f     153     152     150
f     153     150     151
f     164     159     157
f     164     157     162
f     161     155     159
f     161     159     164
f     154     160     165
f     154     165     158
f     160     161     164
f     160     164     165
f     158     165     163
f     158     163     156
f     165     164     162
f     165     162     163
f     176     171     169
f     176     169     174
f     173     167     171
f     173     171     176
f     156     172     177
f     156     177     170
f     172     173     176
f     172     176     177
f     170     177     175
f     170     175     166
f     177     176     174
f     177     174     175
f     187     182     180
f     187     180     185
f     184     178     182
f     184     182     187
f     166     183     188
f     166     188     181
f     183     184     187
f     183     187     188
f     181     188     186
f     181     186     179
f     188     187     185
f     188     185     186
f     197     192     190
f     197     190     195
f     194     189     192
f     194     192     197
f     179     193     198
f     179     198     191
f     193     194     197
f     193     197     198
f     191     198     196
f     191     196     168
f     198     197     195
f     198     195     196
f     208     203     201
f     208     201     206
f     205     199     203
f     205     203     208
f     168     204     209
f     168     209     202
f     204     205     208
f     204     208     209
f     202     209     207
f     202     207     200
f     209     208     206
f     209     206     207
f     219     214     212
f     219     212     217
f     216     211     214
f     216     214     219
f     200     215     220
f     200     220     213
f     215     216     219
f     215     219     220
f     213     220     218
f     213     218     210
f     220     219     217
f     220     217     218
f     230     225     223
f     230     223     228
f     227     221     225
f     227     225     230
f     210     226     231
f     210     231     224
f     226     227     230
f     226     230     231
f     224     231     229
f     224     229     222
f     231     230     228
f     231     228     229
f     240     235     233
f     240     233     238
f     237     232     235
f     237     235     240
f     222     236     241
f     222     241     234
f     236     237     240
f     236     240     241
f     234     241     239
f     234     239     154
f     241     240     238
f     241     238     239
f     252     247     245
f     252     245     250
f     249     243     247
f     249     247     252
f     242     248     253
f     242     253     246
f     248     249     252
f     248     252     253
f     246     253     251
f     246     251     244
f     253     252     250
f     253     250     251
f     264     259     257
f     264     257     262
f     261     255     259
f     261     259     264
f     244     260     265
f     244     265     258
f     260     261     264
f     260     264     265
f     258     265     263
f     258     263     254
f     265     264     262
f     265     262     263
f     275     270     268
f     275     268     273
f     272     266     270
f     272     270     275
f     254     271     276
f     254     276     269
f     271     272     275
f     271     275     276
f     269     276     274
f     269     274     267
f     276     275     273
f     276     273     274
f     285     280     278
f     285     278     283
f     282     277     280
f     282     280     285
f     267     281     286
f     267     286     279
f     281     282     285
f     281     285     286
f     279     286     284
f     279     284     256
f     286     285     283
f     286     283     284
f     296     291     289
f     296     289     294
f     293     287     291
f     293     291     296
f     256     292     297
f     256     297     290
f     292     293     296
f     292     296     297
f     290     297     295
f     290     295     288
f     297     296     294
f     297     294     295
f     307     302     300
f     307     300     305
f     304     299     302
f     304     302     307
f     288     303     308
f     288     308     301
f     303     304     307
f     303     307     308
f     301     308     306
f     301     306     298
f     308     307     305
f     308     305     306
f     318     313     311
f     318     311     316
f     315     309     313
f     315     313     318
f     298     314     319
f     298     319     312
f     314     315     318
f     314     318     319
f     312     319     317
f     312     317     310
f     319     318     316
f     319     316     317
f     328     323     321
f     328     321     326
f     325     320     323
f     325     323     328
f     310     324     329
f     310     329     322
f     324     325     328
f     324     328     329
f     322     329     327
f     322     327     242
f     329     328     326
f     329     326     327
f     340     335     333
f     340     333     338
f     337     331     335
f     337     335     340
f     330     336     341
f     330     341     334
f     336     337     340
f     336     340     341
f     334     341     339
f     334     339     332
f     341     340     338
f     341     338     339
f     352     347     345
f     352     345     350
f     349     343     347
f     349     347     352
f     332     348     353
f     332     353     346
f     348     349     352
f     348     352     353
f     346     353     351
f     346     351     342
f     353     352     350
f     353     350     351
f     363     358     356
f     363     356     361
f     360     354     358
f     360     358     363
f     342     359     364
f     342     364     357
f     359     360     363
f     359     363     364
f     357     364     362
f     357     362     355
f     364     363     361
f     364     361     362
f     373     368     366
f     373     366     371
f     370     365     368
f     370     368     373
f     355     369     374
f     355     374     367
f     369     370     373
f     369     373     374
f     367     374     372
f     367     372     344
f     374     373     371
f     374     371     372
f     384     379     377
f     384     377     382
f     381     375     379
f     381     379     384
f     344     380     385
f     344     385     378
f     380     381     384
f     380     384     385
f     378     385     383
f     378     383     376
f     385     384     382
f     385     382     383
f     395     390     388
f     395     388     393
f     392     387     390
f     392     390     395
f     376     391     396
f     376     396     389
f     391     392     395
f     391     395     396
f     389     396     394
f     389     394     386
f     396     395     393
f     396     393     394
f     406     401     399
f     406     399     404
f     403     397     401
f     403     401     406
f     386     402     407
f     386     407     400
f     402     403     406
f     402     406     407
f     400     407     405
f     400     405     398
f     407     406     404
f     407     404     405
f     416     411     409
f     416     409     414
f     413     408     411
f     413     411     416
f     398     412     417
f     398     417     410
f     412     413     416
f     412     416     417
f     410     417     415
f     410     415     330
f     417     416     414
f     417     414     415
f     428     423     421
f     428     421     426
f     425     419     423
f     425     423     428
f     418     424     429
f     418     429     422
f     424     425     428
f     424     428     429
f     422     429     427
f     422     427     420
f     429     428     426
f     429     426     427
f     440     435     433
f     440     433     438
f     437     431     435
f     437     435     440
f     420     436     441
f     420     441     434
f     436     437     440
f     436     440     441
f     434     441     439
f     434     439     430
f     441     440     438
f     441     438     439
f     451     446     444
f     451     444     449
f     448     442     446
f     448     446     451
f     430     447     452
f     430     452     445
f     447     448     451
f     447     451     452
f     445     452     450
f     445     450     443
f     452     451     449
f     452     449     450
f     461     456     454
f     461     454     459
f     458     453     456
f     458     456     461
f     443     457     462
f     443     462     455
f     457     458     461
f     457     461     462
f     455     462     460
f     455     460     432
f     462     461     459
f     462     459     460
f     472     467     465
f     472     465     470
f     469     463     467
f     469     467     472
f     432     468     473
f     432     473     466
f     468     469     472
f     468     472     473
f     466     473     471
f     466     471     464
f     473     472     470
f     473     470     471
f     483     478     476
f     483     476     481
f     480     475     478
f     480     478     483
f     464     479     484
f     464     484     477
f     479     480     483
f     479     483     484
f     477     484     482
f     477     482     474
f     484     483     481
f     484     481     482
f     494     489     487
f     494     487     492
f     491     485     489
f     491     489     494
f     474     490     495
f     474     495     488
f     490     491     494
f     490     494     495
f     488     495     493
f     488     493     486
f     495     494     492
f     495     492     493
f     504     499     497
f     504     497     502
f     501     496     499
f     501     499     504
f     486     500     505
f     486     505     498
f     500     501     504
f     500     504     505
f     498     505     503
f     498     503     418
f     505     504     502
f     505     502     503
f     516     511     509
f     516     509     514
f     513     507     511
f     513     511     516
f     506     512     517
f     506     517     510
f     512     513     516
f     512     516     517
f     510     517     515
f     510     515     508
f     517     516     514
f     517     514     515
f     528     523     521
f     528     521     526
f     525     519     523
f     525     523     528
f     508     524     529
f     508     529     522
f     524     525     528
f     524     528     529
f     522     529     527
f     522     527     518
f     529     528     526
f     529     526     527
f     539     534     532
f     539     532     537
f     536     530     534
f     536     534     539
f     518     535     540
f     518     540     533
f     535     536     539
f     535     539     540
f     533     540     538
f     533     538     531
f     540     539     537
f     540     537     538
f     549     544     542
f     549     542     547
f     546     541     544
f     546     544     549
f     531     545     550
f     531     550     543
f     545     546     549
f     545     549     550
f     543     550     548
f     543     548     520
f     550     549     547
f     550     547     548
f     560     555     553
f     560     553     558
f     557     551     555
f     557     555     560
f     520     556     561
f     520     561     554
f     556     557     560
f     556     560     561
f     554     561     559
f     554     559     552
f     561     560     558
f     561     558     559
f     571     566     564
f     571     564     569
f     568     563     566
f     568     566     571
f     552     567     572
f     552     572     565
f     567     568     571
f     567     571     572
f     565     572     570
f     565     570     562
f     572     571     569
f     572     569     570
f     582     577     575
f     582     575     580
f     579     573     577
f     579     577     582
f     562     578     583
f     562     583     576
f     578     579     582
f     578     582     583
f     576     583     581
f     576     581     574
f     583     582     580
f     583     580     581
f     592     587     585
f     592     585     590
f     589     584     587
f     589     587     592
f     574     588     593
f     574     593     586
f     588     589     592
f     588     592     593
f     586     593     591
f     586     591     506
f     593     592     590
f     593     590     591
f     604     599     597
f     604     597     602
f     601     595     599
f     601     599     604
f     594     600     605
f     594     605     598
f     600     601     604
f     600     604     605
f     598     605     603
f     598     603     596
f     605     604     602
f     605     602     603
f     616     611     609
f     616     609     614
f     613     607     611
f     613     611     616
f     596     612     617
f     596     617     610
f     612     613     616
f     612     616     617
f     610     617     615
f     610     615     606
f     617     616     614
f     617     614     615
f     627     622     620
f     627     620     625
f     624     618     622
f     624     622     627
f     606     623     628
f     606     628     621
f     623     624     627
f     623     627     628
f     621     628     626
f     621     626     619
f     628     627     625
f     628     625     626
f     637     632     630
f     637     630     635
f     634     629     632
f     634     632     637
f     619     633     638
f     619     638     631
f     633     634     637
f     633     637     638
f     631     638     636
f     631     636     608
f     638     637     635
f     638     635     636
f     648     643     641
f     648     641     646
f     645     639     643
f     645     643     648
f     608     644     649
f     608     649     642
f     644     645     648
f     644     648     649
f     642     649     647
f     642     647     640
f     649     648     646
f     649     646     647
f     659     654     652
f     659     652     657
f     656     651     654
f     656     654     659
f     640     655     660
f     640     660     653
f     655     656     659
f     655     659     660
f     653     660     658
f     653     658     650
f     660     659     657
f     660     657     658
f     670     665     663
f     670     663     668
f     667     661     665
f     667     665     670
f     650     666     671
f     650     671     664
f     666     667     670
f     666     670     671
f     664     671     669
f     664     669     662
f     671     670     668
f     671     668     669
f     680     675     673
f     680     673     678
f     677     672     675
f     677     675     680
f     662     676     681
f     662     681     674
f     676     677     680
f     676     680     681
f     674     681     679
f     674     679     594
f     681     680     678
f     681     678     679
f     692     687     685
f     692     685     690
f     689     683     687
f     689     687     692
f     682     688     693
f     682     693     686
f     688     689     692
f     688     692     693
f     686     693     691
f     686     691     684
f     693     692     690
f     693     690     691
f     704     699     697
f     704     697     702
f     701     695     699
f     701     699     704
f     684     700     705
f     684     705     698
f     700     701     704
f     700     704     705
f     698     705     703
f     698     703     694
f     705     704     702
f     705     702     703
f     715     710     708
f     715     708     713
f     712     706     710
f     712     710     715
f     694     711     716
f     694     716     709
f     711     712     715
f     711     715     716
f     709     716     714
f     709     714     707
f     716     715     713
f     716     713     714
f     725     720     718
f     725     718     723
f     722     717     720
f     722     720     725
f     707     721     726
f     707     726     719
f     721     722     725
f     721     725     726
f     719     726     724
f     719     724     696
f     726     725     723
f     726     723     724
f     736     731     729
f     736     729     734
f     733     727     731
f     733     731     736
f     696     732     737
f     696     737     730
f     732     733     736
f     732     736     737
f     730     737     735
f     730     735     728
f     737     736     734
f     737     734     735
f     747     742     740
f     747     740     745
f     744     739     742
f     744     742     747
f     728     743     748
f     728     748     741
f     743     744     747
f     743     747     748
f     741     748     746
f     741     746     738
f     748     747     745
f     748     745     746
f     758     753     751
f     758     751     756
f     755     749     753
f     755     753     758
f     738     754     759
f     738     759     752
f     754     755     758
f     754     758     759
f     752     759     757
f     752     757     750
f     759     758     756
f     759     756     757
f     768     763     761
f     768     761     766
f     765     760     763
f     765     763     768
f     750     764     769
f     750     769     762
f     764     765     768
f     764     768     769
f     762     769     767
f     762     767     682
f     769     768     766
f     769     766     767
