           3
           1
           4
   5.0000000000000000        5.0000000000000000     
   45.000000000000000        5.0000000000000000     
   45.000000000000000        45.000000000000000     
   5.0000000000000000        45.000000000000000     
           4
   6.5999999999999996        6.5999999999999996     
   43.399999999999999        6.5999999999999996     
   43.399999999999999        43.399999999999999     
   6.5999999999999996        43.399999999999999     
           4
   5.0000000000000000        5.0000000000000000     
   28.168455266952517        5.0000000000000000     
   28.168455266952517        26.659449005126955     
   5.0000000000000000        26.659449005126955     
           3
           1
           4
   45.000000000000000        5.0000000000000000     
   85.000000000000000        5.0000000000000000     
   85.000000000000000        45.000000000000000     
   45.000000000000000        45.000000000000000     
           4
   46.299999999999997        6.2999999999999998     
   83.700000000000003        6.2999999999999998     
   83.700000000000003        43.700000000000003     
   46.299999999999997        43.700000000000003     
           4
   45.000000000000000        5.0000000000000000     
   66.025190973281866        5.0000000000000000     
   66.025190973281866        27.541819715499880     
   45.000000000000000        27.541819715499880     
           3
           1
           4
   95.000000000000000        5.0000000000000000     
   135.00000000000000        5.0000000000000000     
   135.00000000000000        45.000000000000000     
   95.000000000000000        45.000000000000000     
           4
   96.299999999999997        6.2999999999999998     
   133.69999999999999        6.2999999999999998     
   133.69999999999999        43.700000000000003     
   96.299999999999997        43.700000000000003     
           4
   95.000000000000000        5.0000000000000000     
   116.73057713508607        5.0000000000000000     
   116.73057713508607        26.790048742294314     
   95.000000000000000        26.790048742294314     
           3
           1
           4
   135.00000000000000        5.0000000000000000     
   175.00000000000000        5.0000000000000000     
   175.00000000000000        45.000000000000000     
   135.00000000000000        45.000000000000000     
           4
   136.30000000000001        6.2999999999999998     
   173.69999999999999        6.2999999999999998     
   173.69999999999999        43.700000000000003     
   136.30000000000001        43.700000000000003     
           4
   135.00000000000000        5.0000000000000000     
   155.78266944885254        5.0000000000000000     
   155.78266944885254        27.355195665359499     
   135.00000000000000        27.355195665359499     
           3
           1
           4
   5.0000000000000000        55.000000000000000     
   45.000000000000000        55.000000000000000     
   45.000000000000000        95.000000000000000     
   5.0000000000000000        95.000000000000000     
           4
   6.2999999999999998        56.299999999999997     
   43.700000000000003        56.299999999999997     
   43.700000000000003        93.700000000000003     
   6.2999999999999998        93.700000000000003     
           4
   5.0000000000000000        55.000000000000000     
   27.873188948631288        55.000000000000000     
   27.873188948631288        76.910644435882574     
   5.0000000000000000        76.910644435882574     
           3
           1
           4
   45.000000000000000        55.000000000000000     
   85.000000000000000        55.000000000000000     
   85.000000000000000        95.000000000000000     
   45.000000000000000        95.000000000000000     
           4
   46.299999999999997        56.299999999999997     
   83.700000000000003        56.299999999999997     
   83.700000000000003        93.700000000000003     
   46.299999999999997        93.700000000000003     
           4
   45.000000000000000        55.000000000000000     
   66.115727329254156        55.000000000000000     
   66.115727329254156        78.283982419967657     
   45.000000000000000        78.283982419967657     
           3
           1
           4
   95.000000000000000        55.000000000000000     
   135.00000000000000        55.000000000000000     
   135.00000000000000        95.000000000000000     
   95.000000000000000        95.000000000000000     
           4
   96.599999999999994        56.600000000000001     
   133.40000000000001        56.600000000000001     
   133.40000000000001        93.400000000000006     
   96.599999999999994        93.400000000000006     
           4
   95.000000000000000        55.000000000000000     
   118.19093194007874        55.000000000000000     
   118.19093194007874        78.064715063571924     
   95.000000000000000        78.064715063571924     
           3
           1
           4
   135.00000000000000        55.000000000000000     
   175.00000000000000        55.000000000000000     
   175.00000000000000        95.000000000000000     
   135.00000000000000        95.000000000000000     
           4
   136.59999999999999        56.600000000000001     
   173.40000000000001        56.600000000000001     
   173.40000000000001        93.400000000000006     
   136.59999999999999        93.400000000000006     
           4
   135.00000000000000        55.000000000000000     
   157.69411692619323        55.000000000000000     
   157.69411692619323        77.437249326705938     
   135.00000000000000        77.437249326705938     
