\relax 
\providecommand\hyper@newdestlabel[2]{}
\providecommand\zref@newlabel[2]{}
\providecommand\HyperFirstAtBeginDocument{\AtBeginDocument}
\HyperFirstAtBeginDocument{\ifx\hyper@anchor\@undefined
\global\let\oldcontentsline\contentsline
\gdef\contentsline#1#2#3#4{\oldcontentsline{#1}{#2}{#3}}
\global\let\oldnewlabel\newlabel
\gdef\newlabel#1#2{\newlabelxx{#1}#2}
\gdef\newlabelxx#1#2#3#4#5#6{\oldnewlabel{#1}{{#2}{#3}}}
\AtEndDocument{\ifx\hyper@anchor\@undefined
\let\contentsline\oldcontentsline
\let\newlabel\oldnewlabel
\fi}
\fi}
\global\let\hyper@last\relax 
\gdef\HyperFirstAtBeginDocument#1{#1}
\providecommand\HyField@AuxAddToFields[1]{}
\providecommand\HyField@AuxAddToCoFields[2]{}
\providecommand\pbs@newkey[2]{}
\providecommand\pbs@seq@push@cx[2]{}
\providecommand\pbs@at@end@dvi@check{}
\pbs@at@end@dvi@check
\providecommand\@anim@newkey[2]{}
\pbs@newkey{pbs@last@page}{1}
\pbs@newkey{pbs@last@page}{2}
\@writefile{toc}{\contentsline {section}{\numberline {1}Introduction}{2}{section.1}}
\@writefile{toc}{\contentsline {section}{\numberline {2}Pr\IeC {\'e}sentation}{2}{section.2}}
\newlabel{para:presentation}{{2}{2}{Présentation}{section.2}{}}
\@writefile{toc}{\contentsline {section}{\numberline {3}Entr\IeC {\'e}es}{2}{section.3}}
\newlabel{para:input}{{3}{2}{Entrées}{section.3}{}}
\pbs@newkey{pbs@last@page}{3}
\newlabel{fig:road_network}{{2}{3}{Présentation}{subfigure.1.2}{}}
\@writefile{lof}{\contentsline {subfigure}{\numberline{(a)}{\ignorespaces {}}}{3}{subfigure.1.2}}
\@writefile{lof}{\contentsline {subfigure}{\numberline{(b)}{\ignorespaces {}}}{3}{subfigure.1.2}}
\pbs@newkey{pbs@last@page}{4}
\@writefile{toc}{\contentsline {subsection}{\numberline {3.1}Le fichier \textit  {options.in}}{4}{subsection.3.1}}
\@writefile{toc}{\contentsline {subsection}{\numberline {3.2}Le fichier \textit  {data.in}}{4}{subsection.3.2}}
\pbs@newkey{pbs@last@page}{5}
\@writefile{toc}{\contentsline {subsection}{\numberline {3.3}Les fichiers \textit  {data/*.in}}{5}{subsection.3.3}}
\pbs@newkey{pbs@last@page}{6}
\@writefile{toc}{\contentsline {subsection}{\numberline {3.4}Le fichier \textit  {includes/city\_parameters.inc}}{6}{subsection.3.4}}
\pbs@newkey{pbs@last@page}{7}
\pbs@newkey{pbs@last@page}{8}
\@writefile{toc}{\contentsline {section}{\numberline {4}Sorties}{8}{section.4}}
\newlabel{para:output}{{4}{8}{Sorties}{section.4}{}}
\pbs@newkey{pbs@last@page}{9}
\pbs@newkey{pbs@last@page}{10}
\pbs@newkey{pbs@last@page}{11}
\@writefile{toc}{\contentsline {section}{\numberline {5}Evolution du code}{11}{section.5}}
\newlabel{para:todo}{{5}{11}{Evolution du code}{section.5}{}}
\bibstyle{unsrt}
\bibdata{biblio}
\pbs@newkey{pbs@last@page}{12}
\@writefile{toc}{\contentsline {section}{\numberline {6}Copyright}{12}{section.6}}
\newlabel{para:copyright}{{6}{12}{Copyright}{section.6}{}}
